Starting Test for 
Transistor testing lab
12:10:42 Sep 28 2018


Please wait for device to measure data until it stops printing *
PWM Init 

* * * * * * * * * * * * * * * * Reading complete, hit anykey to continue print 

Print Column in the following order: 

Duty, PD0, PE1, PD2, PD3 

refV = 3947
0,  10.44,  10.31,  3905.06,  1.62 
1,  41.94,  43.25,  3901.00,  1.19 
2,  78.38,  82.00,  3900.94,  1.75 
3,  116.00,  118.25,  3901.56,  1.00 
4,  154.25,  158.62,  3901.00,  1.81 
5,  191.88,  196.25,  3902.69,  0.94 
6,  234.00,  234.00,  3900.69,  0.75 
7,  275.25,  275.50,  3901.88,  2.12 
8,  314.00,  315.62,  3904.06,  1.31 
9,  355.00,  356.75,  3904.31,  1.31 
10,  394.94,  396.69,  3902.88,  2.75 
11,  433.44,  434.69,  3903.50,  13.12 
12,  472.25,  474.62,  3902.88,  72.12 
13,  511.50,  508.62,  3900.06,  295.19 
14,  550.50,  532.50,  3880.62,  740.69 
15,  589.50,  552.69,  3849.81,  1323.19 
16,  627.88,  571.25,  3817.00,  1960.69 
17,  669.69,  588.38,  3781.12,  2597.19 
18,  711.19,  602.38,  3758.50,  3023.50 
19,  752.38,  610.94,  3753.62,  3162.12 
20,  792.56,  617.12,  3748.00,  3246.12 
21,  830.88,  620.50,  3747.56,  3288.44 
22,  870.06,  621.75,  3747.25,  3310.69 
23,  907.88,  624.81,  3745.62,  3323.00 
24,  944.06,  624.12,  3745.94,  3334.25 
25,  981.12,  625.81,  3746.50,  3343.12 
26,  1023.94,  626.50,  3744.44,  3350.94 
27,  1067.06,  627.06,  3743.94,  3357.81 
28,  1109.50,  628.50,  3742.38,  3363.31 
29,  1149.62,  628.88,  3740.69,  3371.00 
30,  1188.25,  630.19,  3741.56,  3377.94 
31,  1227.75,  630.88,  3747.44,  3384.06 
32,  1265.56,  631.44,  3745.94,  3388.62 
33,  1302.56,  632.75,  3746.88,  3395.38 
34,  1339.56,  632.50,  3746.81,  3400.00 
35,  1378.19,  633.81,  3745.81,  3405.75 
36,  1416.88,  634.31,  3747.25,  3411.56 
37,  1461.19,  634.25,  3744.19,  3414.88 
38,  1504.44,  635.25,  3744.06,  3420.06 
39,  1544.44,  634.81,  3742.12,  3424.69 
40,  1584.44,  636.50,  3741.56,  3428.56 
41,  1622.31,  636.88,  3745.81,  3433.31 
42,  1661.38,  638.00,  3745.69,  3438.81 
43,  1697.44,  638.94,  3745.62,  3442.19 
44,  1733.69,  639.25,  3746.06,  3446.38 
45,  1772.44,  638.62,  3746.69,  3450.25 
46,  1810.25,  638.31,  3745.88,  3455.88 
47,  1852.12,  636.31,  3745.81,  3459.50 
48,  1895.00,  636.31,  3745.12,  3463.81 
49,  1937.75,  642.75,  3746.19,  3469.12 
50,  1977.50,  641.38,  3746.25,  3472.25 
51,  2017.12,  642.38,  3745.44,  3476.44 
52,  2056.19,  646.75,  3747.25,  3481.94 
53,  2091.81,  650.06,  3746.31,  3484.19 
54,  2130.38,  648.62,  3747.19,  3488.81 
55,  2167.25,  646.88,  3747.06,  3492.94 
56,  2205.75,  645.06,  3746.56,  3497.25 
57,  2247.44,  644.50,  3747.00,  3501.06 
58,  2290.88,  646.06,  3747.75,  3505.44 
59,  2331.38,  647.44,  3747.12,  3510.50 
60,  2370.62,  647.44,  3750.12,  3514.69 
61,  2406.94,  647.19,  3749.88,  3517.31 
62,  2446.44,  648.25,  3749.69,  3521.81 
63,  2485.12,  648.88,  3747.31,  3524.12 
64,  2524.56,  648.62,  3749.06,  3530.19 
65,  2563.38,  650.06,  3748.00,  3532.31 
66,  2600.69,  650.06,  3747.56,  3536.94 
67,  2644.31,  650.31,  3748.75,  3542.69 
68,  2683.88,  650.38,  3746.19,  3544.81 
69,  2725.81,  651.38,  3747.06,  3549.38 
70,  2763.19,  650.44,  3749.19,  3552.00 
71,  2802.12,  652.56,  3749.81,  3555.25 
72,  2840.44,  652.12,  3749.88,  3559.06 
73,  2879.12,  652.75,  3751.69,  3564.31 
74,  2919.25,  653.56,  3752.31,  3568.56 
75,  2958.31,  653.56,  3751.88,  3572.88 
76,  2996.88,  653.88,  3750.06,  3574.81 
77,  3038.56,  654.38,  3749.38,  3580.06 
78,  3078.75,  655.19,  3748.75,  3582.38 
79,  3119.19,  655.62,  3748.62,  3587.06 
80,  3158.88,  655.56,  3748.62,  3590.50 
81,  3196.75,  656.12,  3748.75,  3594.12 
82,  3236.81,  657.12,  3749.31,  3600.31 
83,  3274.75,  656.44,  3750.00,  3602.56 
84,  3313.00,  656.38,  3750.62,  3607.06 
85,  3350.19,  656.25,  3749.12,  3608.81 
86,  3389.06,  654.75,  3751.00,  3613.75 
87,  3429.88,  655.19,  3749.75,  3617.50 
88,  3470.81,  657.75,  3748.38,  3620.19 
89,  3510.94,  659.88,  3748.56,  3625.12 
90,  3550.75,  660.06,  3747.88,  3629.00 
91,  3590.12,  661.44,  3747.94,  3633.50 
92,  3628.38,  662.50,  3747.88,  3636.38 
93,  3667.00,  663.81,  3748.56,  3638.75 
94,  3706.06,  662.81,  3751.44,  3643.75 
95,  3747.44,  663.25,  3750.69,  3646.31 
96,  3788.56,  664.06,  3752.19,  3651.69 
97,  3826.19,  664.19,  3749.44,  3654.25 
98,  3866.31,  663.62,  3750.50,  3659.25 
99,  3891.50,  663.44,  3750.56,  3661.25 
100,  3895.44,  662.06,  3752.19,  3661.12 
