Starting Test for 
Transistor testing lab
12:10:42 Sep 28 2018


Please wait for device to measure data until it stops printing *
PWM Init 

* * * * * * * * * * * * * * * * Reading complete, hit anykey to continue print 

Print Column in the following order: 

Duty, PD0, PE1, PD2, PD3 

refV = 3949
0,  7.25,  5.62,  3726.00,  3396.12 
1,  44.94,  45.75,  3730.44,  3396.25 
2,  84.75,  87.00,  3731.25,  3396.50 
3,  122.44,  125.06,  3732.00,  3396.81 
4,  162.50,  165.56,  3733.50,  3396.56 
5,  199.50,  203.56,  3731.69,  3396.44 
6,  239.44,  242.94,  3732.00,  3396.19 
7,  281.38,  281.88,  3732.00,  3395.81 
8,  321.12,  321.19,  3730.88,  3395.94 
9,  361.00,  360.94,  3733.69,  3395.38 
10,  401.38,  401.81,  3733.69,  3394.00 
11,  439.81,  443.44,  3732.88,  3394.12 
12,  479.75,  484.69,  3732.44,  3393.31 
13,  518.50,  523.00,  3731.88,  3393.12 
14,  556.62,  561.75,  3731.06,  3392.44 
15,  594.62,  601.06,  3729.19,  3391.62 
16,  634.50,  639.25,  3728.75,  3389.50 
17,  674.69,  679.06,  3728.56,  3389.31 
18,  715.19,  717.81,  3725.31,  3387.75 
19,  756.19,  756.31,  3720.88,  3383.44 
20,  796.62,  796.50,  3718.06,  3380.69 
21,  835.19,  836.38,  3709.38,  3372.94 
22,  872.81,  874.62,  3694.44,  3359.81 
23,  911.44,  915.06,  3658.44,  3326.50 
24,  948.25,  953.75,  3423.19,  3111.19 
25,  984.56,  992.62,  2975.31,  2704.25 
26,  1024.00,  1031.62,  2522.31,  2292.00 
27,  1067.94,  1069.12,  2093.12,  1905.50 
28,  1106.38,  1107.69,  1697.19,  1549.19 
29,  1147.31,  1147.31,  1347.88,  1227.69 
30,  1186.12,  1185.50,  1038.62,  942.81 
31,  1224.75,  1223.44,  768.69,  699.00 
32,  1262.31,  1261.38,  549.25,  498.44 
33,  1299.62,  1301.19,  375.94,  342.75 
34,  1337.38,  1340.56,  249.25,  226.62 
35,  1373.62,  1379.25,  157.44,  142.25 
36,  1417.81,  1419.19,  97.44,  89.06 
37,  1459.19,  1458.62,  56.31,  54.94 
38,  1498.25,  1497.81,  32.19,  32.19 
39,  1539.62,  1537.62,  16.38,  18.94 
40,  1579.81,  1576.44,  10.81,  10.69 
41,  1618.38,  1615.50,  6.19,  7.94 
42,  1657.62,  1652.44,  3.94,  5.00 
43,  1693.56,  1692.12,  4.38,  2.25 
44,  1730.88,  1735.62,  4.12,  1.44 
45,  1768.38,  1772.25,  4.75,  2.38 
46,  1808.00,  1811.06,  5.06,  1.81 
47,  1849.56,  1854.19,  4.44,  1.56 
48,  1891.06,  1892.31,  4.50,  1.38 
49,  1932.31,  1931.81,  3.88,  1.69 
50,  1974.62,  1970.44,  4.12,  2.94 
51,  2011.62,  2008.44,  4.38,  1.25 
52,  2052.00,  2047.88,  4.56,  2.12 
53,  2089.12,  2085.88,  5.31,  2.31 
54,  2127.00,  2133.50,  6.00,  2.69 
55,  2164.50,  2171.69,  5.75,  2.25 
56,  2202.56,  2208.94,  6.44,  2.56 
57,  2243.88,  2248.69,  4.81,  1.56 
58,  2286.88,  2287.31,  6.06,  1.88 
59,  2327.50,  2324.69,  5.31,  1.44 
60,  2366.75,  2364.62,  5.81,  2.06 
61,  2404.56,  2402.50,  6.38,  1.31 
62,  2441.62,  2440.94,  8.00,  2.00 
63,  2479.19,  2481.56,  7.56,  2.06 
64,  2520.25,  2520.44,  9.12,  1.94 
65,  2559.25,  2560.81,  8.81,  3.00 
66,  2597.00,  2599.56,  6.62,  1.44 
67,  2639.44,  2639.56,  7.12,  2.38 
68,  2679.69,  2678.12,  6.19,  1.50 
69,  2721.19,  2718.12,  6.12,  3.25 
70,  2760.00,  2756.12,  5.56,  1.94 
71,  2798.94,  2796.69,  9.25,  2.75 
72,  2837.81,  2835.06,  12.94,  2.38 
73,  2873.69,  2873.81,  13.38,  1.38 
74,  2915.12,  2915.06,  11.44,  2.00 
75,  2953.38,  2951.94,  10.38,  1.50 
76,  2992.62,  2993.50,  9.88,  1.88 
77,  3034.94,  3034.12,  9.75,  2.12 
78,  3074.75,  3073.38,  9.38,  2.38 
79,  3114.62,  3111.56,  8.88,  1.88 
80,  3155.75,  3151.94,  8.00,  1.50 
81,  3193.81,  3190.88,  8.94,  2.69 
82,  3232.31,  3229.88,  10.06,  1.88 
83,  3271.44,  3270.44,  9.31,  1.62 
84,  3309.25,  3307.81,  9.81,  2.94 
85,  3347.81,  3347.38,  10.62,  2.25 
86,  3386.75,  3385.75,  9.25,  1.50 
87,  3427.88,  3425.06,  10.62,  1.69 
88,  3468.00,  3464.12,  9.06,  2.62 
89,  3508.25,  3504.00,  9.94,  2.19 
90,  3547.94,  3545.56,  9.19,  2.75 
91,  3585.38,  3588.19,  8.94,  1.38 
92,  3626.19,  3627.19,  11.62,  2.75 
93,  3663.81,  3664.88,  11.88,  1.12 
94,  3706.38,  3704.81,  12.12,  2.75 
95,  3744.69,  3744.00,  12.12,  0.94 
96,  3782.75,  3783.62,  14.00,  2.00 
97,  3824.50,  3823.50,  13.81,  2.25 
98,  3862.12,  3860.31,  12.94,  1.81 
99,  3901.81,  3900.44,  13.50,  2.25 
100,  3923.56,  3919.06,  14.19,  2.50 
